[
    {
        "Id": 1,
        "Nome": "Produto 1",
        "Preco": 1150.75,
        "Quantidade": 0,
        "QuantidadeEstoque": 5
    },

    {
        "Id": 2,
        "Nome": "Produto 2",
        "Preco": 750.25,
        "Quantidade": 0,
        "QuantidadeEstoque": 5
    },
    {
        "Id": 3,
        "Nome": "Produto 3",
        "Preco": 1300.27,
        "Quantidade": 0,
        "QuantidadeEstoque": 5
    },
    {
        "Id": 4,
        "Nome": "Produto 4",
        "Preco": 800.95,
        "Quantidade": 0,
        "QuantidadeEstoque": 5
    },
    {
        "Id": 5,
        "Nome": "Produto 5",
        "Preco": 1150.75,
        "Quantidade": 0,
        "QuantidadeEstoque": 5
    },

    {
        "Id": 6,
        "Nome": "Produto 6",
        "Preco": 750.75,
        "Quantidade": 0,
        "QuantidadeEstoque": 5
    },

    {
        "Id": 7,
        "Nome": "Produto 7",
        "Preco": 500,
        "Quantidade": 0,
        "QuantidadeEstoque": 5
    },

    {
        "Id": 8,
        "Nome": "Produto 8",
        "Preco": 2520.00,
        "Quantidade": 0,
        "QuantidadeEstoque": 5
    },
    {
        "Id": 9,
        "Nome": "Produto 9",
        "Preco": 1200.15,
        "Quantidade": 0,
        "QuantidadeEstoque": 5
    },
    {
        "Id": 10,
        "Nome": "Produto 10",
        "Preco": 1710.75,
        "Quantidade": 0,
        "QuantidadeEstoque": 5
    },
    {
        "Id": 11,
        "Nome": "Produto 11",
        "Preco": 1710.75,
        "Quantidade": 0,
        "QuantidadeEstoque": 5
    },
    {
        "Id": 12,
        "Nome": "Produto 12",
        "Preco": 1710.75,
        "Quantidade": 0,
        "QuantidadeEstoque": 5
    },
    {
        "Id": 13,
        "Nome": "Produto 13",
        "Preco": 1710.75,
        "Quantidade": 0,
        "QuantidadeEstoque": 5
    },
    {
        "Id": 14,
        "Nome": "Produto 14",
        "Preco": 1710.75,
        "Quantidade": 0,
        "QuantidadeEstoque": 5
    },
    {
        "Id": 15,
        "Nome": "Produto 15",
        "Preco": 1710.75,
        "Quantidade": 0,
        "QuantidadeEstoque": 5
    }
]